<?xml version="1.0" standalone="no"?>
<!DOCTYPE svg PUBLIC "-//W3C//DTD SVG 1.1//EN" "http://www.w3.org/Graphics/SVG/1.1/DTD/svg11.dtd">
<svg xmlns="http://www.w3.org/2000/svg">
<metadata>Copyright (C) 2019 by original authors @ fontello.com</metadata>
<defs>
<font id="fontello" horiz-adv-x="1000" >
<font-face font-family="fontello" font-weight="400" font-stretch="normal" units-per-em="1000" ascent="850" descent="-150" />
<missing-glyph horiz-adv-x="1000" />
<glyph glyph-name="malt" unicode="&#xe800;" d="M376-8c0-86 55-134 124-134 0 0 0 0 0 0 69 0 126 65 126 134l-126 127-124-127z m-44 719a124 124 0 0 1-88 39c-34 1-65-12-89-35-50-47-52-127-4-177l18-19 265-1 43 42-145 151z m520-543l-19 20-264 1-43-42 145-152c48-50 127-52 177-4 50 48 51 127 4 177m9 309l-253-249 269-1h0c34 0 65 12 88 36a124 124 0 0 1 37 88c1 69-54 128-141 126m-735 3h-1a124 124 0 0 1-88-36 124 124 0 0 1-37-89c0-33 6-125 143-125l252 249-269 1z m731 226c-48 49-128 49-177 1l-534-530c-49-48-49-128-1-177 49-49 128-49 177 0l534 529c49 49 50 128 1 177m-220 10c0 86-56 134-125 134 0 0 0 0 0 0-68 0-125-65-125-134l125-127 125 127z" horiz-adv-x="1011" />
</font>
</defs>
</svg>